[
    {
        "state_and_district_of_columbia": "Alabama",
        "obese_adults_number": "30.1",
        "obese_adults": "30.10%",
        "overweight_incl_obese_adults_number": "65.4",
        "overweight_incl_obese_adults": "65.40%",
        "obese_children_and_adolescents_number": "16.7",
        "obese_children_and_adolescents": "16.70%",
        "obesity_rank_number": "3"
    },
    {
        "state_and_district_of_columbia": "Alaska",
        "obese_adults_number": "27.3",
        "obese_adults": "27.30%",
        "overweight_incl_obese_adults_number": "64.5",
        "overweight_incl_obese_adults": "64.50%",
        "obese_children_and_adolescents_number": "11.1",
        "obese_children_and_adolescents": "11.10%",
        "obesity_rank_number": "14"
    },
    {
        "state_and_district_of_columbia": "Arizona",
        "obese_adults_number": "23.3",
        "obese_adults": "23.30%",
        "overweight_incl_obese_adults_number": "59.5",
        "overweight_incl_obese_adults": "59.50%",
        "obese_children_and_adolescents_number": "12.2",
        "obese_children_and_adolescents": "12.20%",
        "obesity_rank_number": "40"
    },
    {
        "state_and_district_of_columbia": "Arkansas",
        "obese_adults_number": "28.1",
        "obese_adults": "28.10%",
        "overweight_incl_obese_adults_number": "64.7",
        "overweight_incl_obese_adults": "64.70%",
        "obese_children_and_adolescents_number": "16.4",
        "obese_children_and_adolescents": "16.40%",
        "obesity_rank_number": "9"
    },
    {
        "state_and_district_of_columbia": "California",
        "obese_adults_number": "23.1",
        "obese_adults": "23.10%",
        "overweight_incl_obese_adults_number": "59.4",
        "overweight_incl_obese_adults": "59.40%",
        "obese_children_and_adolescents_number": "13.2",
        "obese_children_and_adolescents": "13.20%",
        "obesity_rank_number": "41"
    },
    {
        "state_and_district_of_columbia": "Colorado",
        "obese_adults_number": "21",
        "obese_adults": "21.00%",
        "overweight_incl_obese_adults_number": "55",
        "overweight_incl_obese_adults": "55.00%",
        "obese_children_and_adolescents_number": "9.9",
        "obese_children_and_adolescents": "9.90%",
        "obesity_rank_number": "51"
    },
    {
        "state_and_district_of_columbia": "Connecticut",
        "obese_adults_number": "20.8",
        "obese_adults": "20.80%",
        "overweight_incl_obese_adults_number": "58.7",
        "overweight_incl_obese_adults": "58.70%",
        "obese_children_and_adolescents_number": "12.3",
        "obese_children_and_adolescents": "12.30%",
        "obesity_rank_number": "49"
    },
    {
        "state_and_district_of_columbia": "District of Columbia",
        "obese_adults_number": "22.1",
        "obese_adults": "22.10%",
        "overweight_incl_obese_adults_number": "55",
        "overweight_incl_obese_adults": "55.00%",
        "obese_children_and_adolescents_number": "14.8",
        "obese_children_and_adolescents": "14.80%",
        "obesity_rank_number": "43"
    },
    {
        "state_and_district_of_columbia": "Delaware",
        "obese_adults_number": "25.9",
        "obese_adults": "25.90%",
        "overweight_incl_obese_adults_number": "63.9",
        "overweight_incl_obese_adults": "63.90%",
        "obese_children_and_adolescents_number": "22.8",
        "obese_children_and_adolescents": "22.80%",
        "obesity_rank_number": "22"
    },
    {
        "state_and_district_of_columbia": "Florida",
        "obese_adults_number": "23.3",
        "obese_adults": "23.30%",
        "overweight_incl_obese_adults_number": "60.8",
        "overweight_incl_obese_adults": "60.80%",
        "obese_children_and_adolescents_number": "14.4",
        "obese_children_and_adolescents": "14.40%",
        "obesity_rank_number": "39"
    },
    {
        "state_and_district_of_columbia": "Georgia",
        "obese_adults_number": "27.5",
        "obese_adults": "27.50%",
        "overweight_incl_obese_adults_number": "63.3",
        "overweight_incl_obese_adults": "63.30%",
        "obese_children_and_adolescents_number": "16.4",
        "obese_children_and_adolescents": "16.40%",
        "obesity_rank_number": "12"
    },
    {
        "state_and_district_of_columbia": "Hawaii",
        "obese_adults_number": "20.7",
        "obese_adults": "20.70%",
        "overweight_incl_obese_adults_number": "55.3",
        "overweight_incl_obese_adults": "55.30%",
        "obese_children_and_adolescents_number": "13.3",
        "obese_children_and_adolescents": "13.30%",
        "obesity_rank_number": "50"
    },
    {
        "state_and_district_of_columbia": "Idaho",
        "obese_adults_number": "24.6",
        "obese_adults": "24.60%",
        "overweight_incl_obese_adults_number": "61.4",
        "overweight_incl_obese_adults": "61.40%",
        "obese_children_and_adolescents_number": "10.1",
        "obese_children_and_adolescents": "10.10%",
        "obesity_rank_number": "31"
    },
    {
        "state_and_district_of_columbia": "Illinois",
        "obese_adults_number": "25.3",
        "obese_adults": "25.30%",
        "overweight_incl_obese_adults_number": "61.8",
        "overweight_incl_obese_adults": "61.80%",
        "obese_children_and_adolescents_number": "15.8",
        "obese_children_and_adolescents": "15.80%",
        "obesity_rank_number": "26"
    },
    {
        "state_and_district_of_columbia": "Indiana",
        "obese_adults_number": "27.5",
        "obese_adults": "27.50%",
        "overweight_incl_obese_adults_number": "62.8",
        "overweight_incl_obese_adults": "62.80%",
        "obese_children_and_adolescents_number": "15.6",
        "obese_children_and_adolescents": "15.60%",
        "obesity_rank_number": "11"
    },
    {
        "state_and_district_of_columbia": "Iowa",
        "obese_adults_number": "26.3",
        "obese_adults": "26.30%",
        "overweight_incl_obese_adults_number": "63.4",
        "overweight_incl_obese_adults": "63.40%",
        "obese_children_and_adolescents_number": "12.5",
        "obese_children_and_adolescents": "12.50%",
        "obesity_rank_number": "19"
    },
    {
        "state_and_district_of_columbia": "Kansas",
        "obese_adults_number": "25.8",
        "obese_adults": "25.80%",
        "overweight_incl_obese_adults_number": "62.3",
        "overweight_incl_obese_adults": "62.30%",
        "obese_children_and_adolescents_number": "14",
        "obese_children_and_adolescents": "14.00%",
        "obesity_rank_number": "23"
    },
    {
        "state_and_district_of_columbia": "Kentucky",
        "obese_adults_number": "28.4",
        "obese_adults": "28.40%",
        "overweight_incl_obese_adults_number": "66.8",
        "overweight_incl_obese_adults": "66.80%",
        "obese_children_and_adolescents_number": "20.6",
        "obese_children_and_adolescents": "20.60%",
        "obesity_rank_number": "7"
    },
    {
        "state_and_district_of_columbia": "Louisiana",
        "obese_adults_number": "29.5",
        "obese_adults": "29.50%",
        "overweight_incl_obese_adults_number": "64.2",
        "overweight_incl_obese_adults": "64.20%",
        "obese_children_and_adolescents_number": "17.2",
        "obese_children_and_adolescents": "17.20%",
        "obesity_rank_number": "4"
    },
    {
        "state_and_district_of_columbia": "Maine",
        "obese_adults_number": "23.7",
        "obese_adults": "23.70%",
        "overweight_incl_obese_adults_number": "60.8",
        "overweight_incl_obese_adults": "60.80%",
        "obese_children_and_adolescents_number": "12.7",
        "obese_children_and_adolescents": "12.70%",
        "obesity_rank_number": "34"
    },
    {
        "state_and_district_of_columbia": "Maryland",
        "obese_adults_number": "25.2",
        "obese_adults": "25.20%",
        "overweight_incl_obese_adults_number": "61.5",
        "overweight_incl_obese_adults": "61.50%",
        "obese_children_and_adolescents_number": "13.3",
        "obese_children_and_adolescents": "13.30%",
        "obesity_rank_number": "28"
    },
    {
        "state_and_district_of_columbia": "Massachusetts",
        "obese_adults_number": "20.9",
        "obese_adults": "20.90%",
        "overweight_incl_obese_adults_number": "56.8",
        "overweight_incl_obese_adults": "56.80%",
        "obese_children_and_adolescents_number": "13.6",
        "obese_children_and_adolescents": "13.60%",
        "obesity_rank_number": "48"
    },
    {
        "state_and_district_of_columbia": "Michigan",
        "obese_adults_number": "27.7",
        "obese_adults": "27.70%",
        "overweight_incl_obese_adults_number": "63.9",
        "overweight_incl_obese_adults": "63.90%",
        "obese_children_and_adolescents_number": "14.5",
        "obese_children_and_adolescents": "14.50%",
        "obesity_rank_number": "10"
    },
    {
        "state_and_district_of_columbia": "Minnesota",
        "obese_adults_number": "24.8",
        "obese_adults": "24.80%",
        "overweight_incl_obese_adults_number": "61.9",
        "overweight_incl_obese_adults": "61.90%",
        "obese_children_and_adolescents_number": "10.1",
        "obese_children_and_adolescents": "10.10%",
        "obesity_rank_number": "30"
    },
    {
        "state_and_district_of_columbia": "Mississippi",
        "obese_adults_number": "34.4",
        "obese_adults": "34.40%",
        "overweight_incl_obese_adults_number": "67.4",
        "overweight_incl_obese_adults": "67.40%",
        "obese_children_and_adolescents_number": "17.8",
        "obese_children_and_adolescents": "17.80%",
        "obesity_rank_number": "1"
    },
    {
        "state_and_district_of_columbia": "Missouri",
        "obese_adults_number": "27.4",
        "obese_adults": "27.40%",
        "overweight_incl_obese_adults_number": "63.3",
        "overweight_incl_obese_adults": "63.30%",
        "obese_children_and_adolescents_number": "15.6",
        "obese_children_and_adolescents": "15.60%",
        "obesity_rank_number": "13"
    },
    {
        "state_and_district_of_columbia": "Montana",
        "obese_adults_number": "21.7",
        "obese_adults": "21.70%",
        "overweight_incl_obese_adults_number": "59.6",
        "overweight_incl_obese_adults": "59.60%",
        "obese_children_and_adolescents_number": "11.1",
        "obese_children_and_adolescents": "11.10%",
        "obesity_rank_number": "45"
    },
    {
        "state_and_district_of_columbia": "Nebraska",
        "obese_adults_number": "26.5",
        "obese_adults": "26.50%",
        "overweight_incl_obese_adults_number": "63.9",
        "overweight_incl_obese_adults": "63.90%",
        "obese_children_and_adolescents_number": "11.9",
        "obese_children_and_adolescents": "11.90%",
        "obesity_rank_number": "18"
    },
    {
        "state_and_district_of_columbia": "Nevada",
        "obese_adults_number": "23.6",
        "obese_adults": "23.60%",
        "overweight_incl_obese_adults_number": "61.8",
        "overweight_incl_obese_adults": "61.80%",
        "obese_children_and_adolescents_number": "12.4",
        "obese_children_and_adolescents": "12.40%",
        "obesity_rank_number": "36"
    },
    {
        "state_and_district_of_columbia": "New Hampshire",
        "obese_adults_number": "23.6",
        "obese_adults": "23.60%",
        "overweight_incl_obese_adults_number": "60.8",
        "overweight_incl_obese_adults": "60.80%",
        "obese_children_and_adolescents_number": "12.9",
        "obese_children_and_adolescents": "12.90%",
        "obesity_rank_number": "35"
    },
    {
        "state_and_district_of_columbia": "New Jersey",
        "obese_adults_number": "22.9",
        "obese_adults": "22.90%",
        "overweight_incl_obese_adults_number": "60.5",
        "overweight_incl_obese_adults": "60.50%",
        "obese_children_and_adolescents_number": "13.7",
        "obese_children_and_adolescents": "13.70%",
        "obesity_rank_number": "42"
    },
    {
        "state_and_district_of_columbia": "New Mexico",
        "obese_adults_number": "23.3",
        "obese_adults": "23.30%",
        "overweight_incl_obese_adults_number": "60.3",
        "overweight_incl_obese_adults": "60.30%",
        "obese_children_and_adolescents_number": "16.8",
        "obese_children_and_adolescents": "16.80%",
        "obesity_rank_number": "38"
    },
    {
        "state_and_district_of_columbia": "New York",
        "obese_adults_number": "23.5",
        "obese_adults": "23.50%",
        "overweight_incl_obese_adults_number": "60",
        "overweight_incl_obese_adults": "60.00%",
        "obese_children_and_adolescents_number": "15.3",
        "obese_children_and_adolescents": "15.30%",
        "obesity_rank_number": "37"
    },
    {
        "state_and_district_of_columbia": "North Carolina",
        "obese_adults_number": "27.1",
        "obese_adults": "27.10%",
        "overweight_incl_obese_adults_number": "63.4",
        "overweight_incl_obese_adults": "63.40%",
        "obese_children_and_adolescents_number": "19.3",
        "obese_children_and_adolescents": "19.30%",
        "obesity_rank_number": "16"
    },
    {
        "state_and_district_of_columbia": "North Dakota",
        "obese_adults_number": "25.9",
        "obese_adults": "25.90%",
        "overweight_incl_obese_adults_number": "64.5",
        "overweight_incl_obese_adults": "64.50%",
        "obese_children_and_adolescents_number": "12.1",
        "obese_children_and_adolescents": "12.10%",
        "obesity_rank_number": "21"
    },
    {
        "state_and_district_of_columbia": "Ohio",
        "obese_adults_number": "26.9",
        "obese_adults": "26.90%",
        "overweight_incl_obese_adults_number": "63.3",
        "overweight_incl_obese_adults": "63.30%",
        "obese_children_and_adolescents_number": "14.2",
        "obese_children_and_adolescents": "14.20%",
        "obesity_rank_number": "17"
    },
    {
        "state_and_district_of_columbia": "Oklahoma",
        "obese_adults_number": "28.1",
        "obese_adults": "28.10%",
        "overweight_incl_obese_adults_number": "64.2",
        "overweight_incl_obese_adults": "64.20%",
        "obese_children_and_adolescents_number": "15.4",
        "obese_children_and_adolescents": "15.40%",
        "obesity_rank_number": "8"
    },
    {
        "state_and_district_of_columbia": "Oregon",
        "obese_adults_number": "25",
        "obese_adults": "25.00%",
        "overweight_incl_obese_adults_number": "60.8",
        "overweight_incl_obese_adults": "60.80%",
        "obese_children_and_adolescents_number": "14.1",
        "obese_children_and_adolescents": "14.10%",
        "obesity_rank_number": "29"
    },
    {
        "state_and_district_of_columbia": "Pennsylvania",
        "obese_adults_number": "25.7",
        "obese_adults": "25.70%",
        "overweight_incl_obese_adults_number": "61.9",
        "overweight_incl_obese_adults": "61.90%",
        "obese_children_and_adolescents_number": "13.3",
        "obese_children_and_adolescents": "13.30%",
        "obesity_rank_number": "24"
    },
    {
        "state_and_district_of_columbia": "Rhode Island",
        "obese_adults_number": "21.4",
        "obese_adults": "21.40%",
        "overweight_incl_obese_adults_number": "60.4",
        "overweight_incl_obese_adults": "60.40%",
        "obese_children_and_adolescents_number": "11.9",
        "obese_children_and_adolescents": "11.90%",
        "obesity_rank_number": "46"
    },
    {
        "state_and_district_of_columbia": "South Carolina",
        "obese_adults_number": "29.2",
        "obese_adults": "29.20%",
        "overweight_incl_obese_adults_number": "65.1",
        "overweight_incl_obese_adults": "65.10%",
        "obese_children_and_adolescents_number": "18.9",
        "obese_children_and_adolescents": "18.90%",
        "obesity_rank_number": "5"
    },
    {
        "state_and_district_of_columbia": "South Dakota",
        "obese_adults_number": "26.1",
        "obese_adults": "26.10%",
        "overweight_incl_obese_adults_number": "64.2",
        "overweight_incl_obese_adults": "64.20%",
        "obese_children_and_adolescents_number": "12.1",
        "obese_children_and_adolescents": "12.10%",
        "obesity_rank_number": "20"
    },
    {
        "state_and_district_of_columbia": "Tennessee",
        "obese_adults_number": "29",
        "obese_adults": "29.00%",
        "overweight_incl_obese_adults_number": "65",
        "overweight_incl_obese_adults": "65.00%",
        "obese_children_and_adolescents_number": "20",
        "obese_children_and_adolescents": "20.00%",
        "obesity_rank_number": "6"
    },
    {
        "state_and_district_of_columbia": "Texas",
        "obese_adults_number": "27.2",
        "obese_adults": "27.20%",
        "overweight_incl_obese_adults_number": "64.1",
        "overweight_incl_obese_adults": "64.10%",
        "obese_children_and_adolescents_number": "19.1",
        "obese_children_and_adolescents": "19.10%",
        "obesity_rank_number": "15"
    },
    {
        "state_and_district_of_columbia": "Utah",
        "obese_adults_number": "21.8",
        "obese_adults": "21.80%",
        "overweight_incl_obese_adults_number": "56.4",
        "overweight_incl_obese_adults": "56.40%",
        "obese_children_and_adolescents_number": "8.5",
        "obese_children_and_adolescents": "8.50%",
        "obesity_rank_number": "44"
    },
    {
        "state_and_district_of_columbia": "Vermont",
        "obese_adults_number": "21.1",
        "obese_adults": "21.10%",
        "overweight_incl_obese_adults_number": "56.9",
        "overweight_incl_obese_adults": "56.90%",
        "obese_children_and_adolescents_number": "11.3",
        "obese_children_and_adolescents": "11.30%",
        "obesity_rank_number": "47"
    },
    {
        "state_and_district_of_columbia": "Virginia",
        "obese_adults_number": "25.2",
        "obese_adults": "25.20%",
        "overweight_incl_obese_adults_number": "61.6",
        "overweight_incl_obese_adults": "61.60%",
        "obese_children_and_adolescents_number": "13.8",
        "obese_children_and_adolescents": "13.80%",
        "obesity_rank_number": "27"
    },
    {
        "state_and_district_of_columbia": "Washington",
        "obese_adults_number": "24.5",
        "obese_adults": "24.50%",
        "overweight_incl_obese_adults_number": "60.7",
        "overweight_incl_obese_adults": "60.70%",
        "obese_children_and_adolescents_number": "10.8",
        "obese_children_and_adolescents": "10.80%",
        "obesity_rank_number": "32"
    },
    {
        "state_and_district_of_columbia": "West Virginia",
        "obese_adults_number": "30.6",
        "obese_adults": "30.60%",
        "overweight_incl_obese_adults_number": "66.8",
        "overweight_incl_obese_adults": "66.80%",
        "obese_children_and_adolescents_number": "20.9",
        "obese_children_and_adolescents": "20.90%",
        "obesity_rank_number": "2"
    },
    {
        "state_and_district_of_columbia": "Wisconsin",
        "obese_adults_number": "25.5",
        "obese_adults": "25.50%",
        "overweight_incl_obese_adults_number": "62.4",
        "overweight_incl_obese_adults": "62.40%",
        "obese_children_and_adolescents_number": "13.5",
        "obese_children_and_adolescents": "13.50%",
        "obesity_rank_number": "25"
    },
    {
        "state_and_district_of_columbia": "Wyoming",
        "obese_adults_number": "24",
        "obese_adults": "24.00%",
        "overweight_incl_obese_adults_number": "61.7",
        "overweight_incl_obese_adults": "61.70%",
        "obese_children_and_adolescents_number": "8.7",
        "obese_children_and_adolescents": "8.70%",
        "obesity_rank_number": "33"
    }
]